{
  "type": "service_account",
  "project_id": "robo-agent",
  "private_key_id": "1b3b40dd16f24df52a44a7769c624d209cfe8f2c",
  "private_key": "-----BEGIN PRIVATE KEY-----\nMIIEvQIBADANBgkqhkiG9w0BAQEFAASCBKcwggSjAgEAAoIBAQCkw/qXCpUkZIg4\nEIZmYO68tZOzCcIPCdqO3+G3N0q7Ydax410OdJz2WqaueXUqc/PvKhtwFBRXRY7S\nLpbKYozY2A/T2wyQtifF1Ky4a4ByFpWvNuwda0dMyr+8f4jr2Ej4rGEumPiqVQmh\nA0R3ExOqgHzJ2U3M6ZEaIKev64GtRt1evzZNeWOLOXZHNp24PTZCvwg8flH6+23j\nf+BXWZuiylAarOEz6OG/Ifv513jWHN0iAnNwK/q8QWph5N53jusGQbL37RRZTPvw\nSJYNTghwgpwbTom/FbwdvA3S9mxsDQDB/l82IMkzdlw3Sk/gAeBwrFNUD7MoflcV\nc2ZGsPfBAgMBAAECggEAAnylhzL5ATCOBIwdzjTpd5JVS1ES83WIbaqECncYfvtt\nIVhbYMbqcVa5EDY7ui8/u+D2ou5/p9lQPHyI6L877WA1/XJvhi3kq+oPzRUMzlQI\nUHmnjtJeJDLledmyMi6cm9nEuf6DttTzoTE2nuY8IFFCCO0pbSXLm5GJfGiVZ41N\nfgHvP67Fn1lGk/em5vPRMtHT3Sew0l1DvDg/dHT+CTTcLqUte7PzYvK5j+JipYKM\nZ4LNKpjdY+FIP6rIoSWAjr4Gzn27F5jcJ+80GCq8I+T9Nz7EA6205qHZQcHGVvE+\nUZ1C0BHG8OT6NerXZh/4Ub7ssbRd4LGA9a5z2Zq9EQKBgQDciiUP0mUSnMvfcVSz\nKdMONt0cEk9KDhZGrXX3ceoEzSgUbRTfGnJ+OuS7nw1LORshhXc1uucnfcFLn+WS\n61zzD3BRsigIeqcjfWDnwJQ7sMq5I6ylMOjsZl4lTPWVpaL2YzvwPZOsgPYfsncB\nhsas8xDm9uIyOO5xNf2hQAtosQKBgQC/Qg93FQ8X8sXsTi4qhGTot/oCCah2PXTC\nrAn2K9vdoQswPbdKH/MS8XjJ3IrMBmJeHxYzwSIVtUbPwa55KafxqEh+0ck682mg\nJhQKh7YUudyjxq0AohwpvShVWmdc35fccBxWErcRKy/Nx8rMDWeqB3N8ooUaDEVX\nMdyJaCBEEQKBgCARzpXgaGYues8BMenjuRcmDz0XxIPmTIL2kmLrI7aTBrMBsblH\npUKJ2d0Wod5AbZuQRud/SEHL3aHbnIyiwR9vLUwT9hJVk5xrjP3mWSfc633EnERh\nOl21/Ra7fDLIpUvi3kJvEdxR3Hh7gSatrJJVvi131Siscq/vw/QA1ifhAoGAdURU\n5SfVXFKvhkcdSVZp5MLBGLTBRNZDnAUOCpEzuv0+NfLxShKy4F+MNwDxXU1gzOL0\nowD9HCBM7Z+MkZ+36JTM9m08m9eZYOdYDGjPfH/FR+nOM4AyEml3rHXEwI4bt75J\nsYDCHFXFdr/UmS5y7C6rYbToNWNmtKLO3LUqa3ECgYEAw7QZdZpZlmFHyWns1axF\n23E9Csnaz+XpPP04+pNGID2DxkBa/LViWk+Qx4t/cs+IZbIsoBgzLawJG8JLm7Hl\nuJSOhvotUOE0nOPIDlLnaI8hremsWbZbEYr7XFFSMZ4GG3oECd0TnI0v7ELFFFf0\nJ7tqzaAwMpsKF9oxHhJChoA=\n-----END PRIVATE KEY-----\n",
  "client_email": "robo-agent@appspot.gserviceaccount.com",
  "client_id": "107401652845129126550",
  "auth_uri": "https://accounts.google.com/o/oauth2/auth",
  "token_uri": "https://oauth2.googleapis.com/token",
  "auth_provider_x509_cert_url": "https://www.googleapis.com/oauth2/v1/certs",
  "client_x509_cert_url": "https://www.googleapis.com/robot/v1/metadata/x509/robo-agent%40appspot.gserviceaccount.com"
}
